{
  "project_info": {
    "project_number": "947128112698",
    "firebase_url": "https://miroslav727-euniver.firebaseio.com",
    "project_id": "miroslav727-euniver",
    "storage_bucket": "miroslav727-euniver.appspot.com"
  },
  "client": [
    {
      "client_info": {
        "mobilesdk_app_id": "1:947128112698:android:7a03fb427b949c44",
        "android_client_info": {
          "package_name": "com.miroslav727.euniverzitet"
        }
      },
      "oauth_client": [
        {
          "client_id": "947128112698-bac6ng010hahja9ahih3tb6ff25tb2em.apps.googleusercontent.com",
          "client_type": 3
        }
      ],
      "api_key": [
        {
          "current_key": "AIzaSyAeTObVcHE0Dbrn0_ThZF7ASFuQFjLEFFA"
        }
      ],
      "services": {
        "analytics_service": {
          "status": 1
        },
        "appinvite_service": {
          "status": 1,
          "other_platform_oauth_client": []
        },
        "ads_service": {
          "status": 2
        }
      }
    }
  ],
  "configuration_version": "1"
}